Get started • admin2check
…
      get-started.Rmd

library(admin2check)

f_get_admin2_boundaries

## The test is actually the QA process! 
library(countrycode)
ctr <- countrycode::codelist |>
       dplyr::filter( ! is.na(iso3c) )  |>
       dplyr::filter(unhcr.region == "The Americas" ) |>
       dplyr::select(country.name.en, iso3c) |>
       dplyr::arrange( iso3c)
ctr
#> # A tibble: 51 × 2
#>    country.name.en       iso3c
#>    <chr>                 <chr>
#>  1 Aruba                 ABW  
#>  2 Anguilla              AIA  
#>  3 Argentina             ARG  
#>  4 Antigua & Barbuda     ATG  
#>  5 Caribbean Netherlands BES  
#>  6 Bahamas               BHS  
#>  7 Belize                BLZ  
#>  8 Bermuda               BMU  
#>  9 Bolivia               BOL  
#> 10 Brazil                BRA  
#> # ℹ 41 more rows
…
