Get admin2 polygons from API — f_get_admin2_boundaries • admin2check
…
    Value

sf object

    Examples

## The test is actually the QA process! 
library(countrycode)
ctr <- countrycode::codelist |>
       dplyr::filter( ! is.na(iso3c) )  |>
       dplyr::filter(continent == "Americas" ) |>
       dplyr::select(country.name.en, iso3c)
ctr
#> # A tibble: 55 × 2
#>    country.name.en   iso3c
#>    <chr>             <chr>
#>  1 Anguilla          AIA  
#>  2 Antigua & Barbuda ATG  
#>  3 Argentina         ARG  
#>  4 Aruba             ABW  
#>  5 Bahamas           BHS  
#>  6 Barbados          BRB  
#>  7 Belize            BLZ  
#>  8 Bermuda           BMU  
#>  9 Bolivia           BOL  
#> 10 Brazil            BRA  
#> # ℹ 45 more rows
…
